DL,ILS,n,r,network,"gene tree"
H,L,20,4,"((#C,(t1,((t3,t20),t16))),(#B,(((((t11,t10),(t6)#A),(t7,t4)),(#A,(t13,((t14,t18),(#D,t12))))),((t8,((t15,(t5)#B))#C),(t2,(t9,(t19,(t17)#D)))))))","((((t11,t10),(t7,t4)),((t13,((t18,t14),t12)),t6)),((t5,t15),((t9,(t19,t17)),t2)));"
H,L,20,4,"(t20,(#C,((((t8,(t9)#C),(t19)#A),(t18,(t13)#D)),((((t14,t5),(t12,t17)),(t7,t11)),(#B,(#A,((t10,t3),((t16,(t4,t2)),(#D,(t15,(t1,(t6)#B)))))))))))","(((((t13,((t1,t6),t15)),((t4,t2),t16)),(t10,t3)),((t8,t19),t18)),t20);"
H,L,20,4,"(((((t3,(#D,(((t17,t16),(t8)#B),t20))),(t9)#D),((((t15,t4),t7),t5),(#B,t19))),t14),(((t6,((t1,((t13,t10),(#A,((t11,(t12)#A),t2)))))#C),t18),#C))","((((((t4,t15),t7),t5),(t8,t19)),(t9,(((t16,t17),t20),t3))),t14);"
H,L,20,4,"(((((t10,(t19,t2)),(t3,t7)),(#B,(t12,t13))),(t14,(#D,(t16,(t18)#A)))),((((t8,(#C,((t4,t9),(t17,(t20,(t15)#B))))),(t1)#C),(#A,t6)),(t11,(t5)#D)))","(((((t10,t19),t2),(t7,t3)),(t5,t16)),((t6,(t8,((t9,t4),t20))),t11));"
H,L,20,4,"(t3,((((((t13,(t2)#B),((t9,(t19)#C),(t8,t6))),(t4,(t16)#A)),(#A,((t17,(#C,t10)),(t18,t5)))),(t20,((t15,t12))#D)),((((t14,t11),t7),(#B,t1)),#D)))","(((((t20,(t12,t15)),(((t2,t13),((t6,t8),(t4,t16))),((t19,t10),(t18,t5)))),((t11,t14),t7)),t1),t3);"
H,L,20,4,"(((t3,((((#C,t11),(#A,t12)),(#B,((t4,(t19)#A),t18))),(#D,((t16,((t6,t20))#C),t13)))),t14),(((t7,(t9,t10)),((t5,((t15,t17))#D),t1)),(t8,(t2)#B)))","((((t2,((t19,t12),t6)),t16),t3),(t8,(((t9,t10),t7),t5)));"
H,L,20,4,"((t7,(t5,t15)),(#A,(((((t10,t9),((t3,t18),(#D,t8))),(((t17,(t2)#B),((t4,t13))#C))#A),((((t6)#D,(#B,t19)),((t12,t14),(t20,t16))),#C)),(t11,t1))))","((((((t17,t2),(t4,t13)),(t3,t18)),t9),t10),(((t12,t14),(t20,t16)),(t19,t6)));"
H,L,20,4,"(((#C,t13),(((t2,t15),(t18,(t17)#D)),#B)),(#A,((t1,(t6,t16)),(#D,((t3,(t8,((t7,(t19)#A),((t4,(t5)#B))#C))),((t9,t10),((t12,t11),(t14,t20))))))))","(((t19,(t1,(t16,t6))),(((t14,t20),(t12,t11)),t9)),((t15,t2),t13));"
H,L,20,4,"(((t1,(t13,t6)),((t19,((t2,t3),(t14,(t16)#A))),(#C,(#D,(#B,(t20,((#A,t11))#D)))))),((t4,(t8,(t10,(t9)#C))),(t18,(t15,((t5,t7),(t12,(t17)#B))))))","(((((t7,t5),(t17,t12)),t15),t18),(((t9,t10),t8),t4));"
H,L,20,4,"(((t16,t6),(#A,(#D,(((t2,((t5,t18))#A),(t15,((t12)#C,t3))),t7)))),((((t13,(t10)#B),(t14)#D),t9),(((t20,(t4,(t1,t17))),t11),(t19,(#B,(#C,t8))))))","(((((t4,(t1,t17)),t20),t11),(t8,t19)),((t10,t13),(t14,t9)));"
H,L,20,4,"(t4,(((t13,((t3,(t14)#B))#D),((t17,(#D,(t1,t5))),(t2)#C)),(((#A,(((t20,t10),(#B,t7)),t8)),((((t19,t16),(t9,t18)),(#C,t12)))#A),(t15,(t11,t6)))))","(((((t19,t18),(t2,t12)),t15),t8),((t13,t3),(t17,(t5,t1))));"
H,L,20,4,"(((t7,(t10)#C),(t16,(t5,(t3)#D))),((((t19,(t14)#B),(t2,t8)),((t13,t12),(#B,((#C,t9),(#A,((t20,t11),t18)))))),((((t6,t1),(t17)#A),t15),(#D,t4))))","((((t3,t5),t16),(t7,t10)),(t4,(t17,(t1,t6))));"
H,L,20,4,"((((t5,t18),(((t9,t4),(#C,t15)),(t14)#A)),(t17,((t11,t19),(t7,t10)))),(#A,(((((t1,(t13)#D),t8),(t2,(t20)#C)),t16),(t12,(#B,((#D,t6),(t3)#B))))))","(((((t15,t20),(t9,t4)),t14),t18),(t7,(t19,t11)));"
H,L,20,4,"((t16,(#C,((t6,t1),(t9,(t20,t2))))),(#D,(((t13,(((t7,((t14,t4))#B),((#B,(((t19,(t8)#A),t10),((t3,t12))#C)))#D),t5)),t17),(t15,(#A,(t11,t18))))))","(((((t12,t3),(t10,t19)),((t14,t4),t7)),t5),t13);"
H,L,20,4,"((((((t20,((t18,((t11,t19),t4)))#D),((t5,t15),t13)),(#C,(#B,((t17,t10),t1)))),((t8,(t3)#B),t16)),(#D,((t14,(t2,t12)),(t9)#A))),(#A,(t6,(t7)#C)))","((((t5,(t15,t13)),((t17,t10),((t18,((t11,t19),t4)),t20))),t7),((t2,t12),t14));"
H,L,20,4,"(((t10,t18),t13),(#C,(((t11,(((#B,((((t1,(#D,t6)),t2),((t20,(t14,(t15)#D)),(t9,(t12)#B))),(t5,(t3)#C))),(#A,(t19,t17))),t7)),((t16,t8))#A),t4)))","((((((((t17,t19),t7),((t5,t3),t9)),t12),t11),(t8,t16)),t4),t13);"
H,L,20,4,"(((t18,(t19)#B),(#B,(t15,((t12,t8),((t2,t13))#D)))),(t11,(((t7,((t10,t20),t4)),(#C,t1)),((t3)#C,(#D,(t17,((t16,(t9)#A),(#A,((t6,t14),t5)))))))))","(((((t16,(t9,(t5,(t14,t6)))),t17),(t2,t13)),((t11,((t4,(t20,t10)),t1)),t3)),t7);"
H,L,20,4,"(((((((#C,t3),t7),t8),(#B,(t6,t18))),(#A,t11)),((t1,(#D,t2)),((t5,t10),t20))),(t12,(((t13,t19),((t16,(t4)#D),t17)),((t15,((t9,(t14)#A))#B))#C)))","(((t19,(t17,(t4,t16))),t13),(((t10,t5),t20),(t1,t2)));"
H,L,20,4,"(((t2,(#D,t16)),((t19,((t1,t10),(((t4,t14),t15))#B)),(((t17,((t12,t3))#D),t5),(#A,((t11,(t18)#A),(t7)#C))))),(#B,(#C,((((t6,t8),t13),t20),t9))))","((((((t14,t4),t15),(t1,t10)),t19),t5),t2);"
H,L,20,4,"(t17,((((t20,t9),t13),((t6,(t3,(t2)#B)),(#A,((t8,t11),(t18,t12))))),(#B,(((t19,(#C,((t5,t10),(t16)#D))),t7),(#D,(t1,(((t14,t15),(t4)#A))#C))))))","((((t6,t3),(t18,t12)),(t13,(t9,t20))),t16);"
H,L,20,4,"(t11,(((t17,(#A,(((t3,((t5,(#B,((t6,(#C,t15)),(t14,t9)))))#D),t8),(t10,(t13)#B)))),t12),((t18,(#D,(t2,(t20)#C))),(t16,(((t4,(t19)#A),t7),t1)))))","(((t19,(((t3,t5),t8),t10)),(t18,t2)),t11);"
H,L,20,4,"((((((t20,t9),t5))#C,(#A,(t1,t15))),t6),((t10,((t18,(((t11,(t2)#A),(t3)#D))#B),(#D,(t14,((t19,t7),t13))))),(#C,((t4,t12),(t8,(t17,(#B,t16)))))))","((((((t18,t11),t2),t3),(t14,(t7,t19))),t10),(t6,(t15,t1)));"
H,L,20,4,"(((t1,(t13,t6)),((t19,((t2,t3),(t14,(t16)#A))),(#C,(#D,(#B,(t20,((#A,t11))#D)))))),((t4,(t8,(t10,(t9)#C))),(t18,(t15,((t5,t7),(t12,(t17)#B))))))","(((((t3,t2),(t16,t14)),t19),((t11,t17),t20)),((t6,t1),t13));"
H,L,20,4,"(((((t9,(t1,(t7)#C)),(t15)#D),((#C,t19),((((t12,t3),(t14,t10)),t17),t16))),(#B,((((t2,t4),t11),t8),(t6,#D)))),(#A,((t5,((t20,(t13)#B))#A),t18)))","(((t11,((t13,(t2,t4)),t6)),(t15,(t1,t9))),(t20,(t18,t5)));"
H,L,20,4,"(t3,((((((((t5,t16),(#C,t11)),(#D,t20)),(t1,(t10)#D)),t4),t8),(((t2,t19),(t9,(t14)#C)),(t6,t13))),(#B,(((t7,(t18)#B),t15),((#A,t17),(t12)#A)))))","((((((t16,t5),(t14,t11)),(t4,t20)),(t6,t13)),t8),(t17,t12));"
H,L,20,4,"((t1,((t6,t15))#C),(#B,(#A,(((t5,(t7,t2)),(((t19,t12),t8),((((t17,t13),(t20)#A),((#C,t16))#B),t4))),(((t10,t18),t11),(#D,(t14,(t9,(t3)#D))))))))","(((((((t16,t15),(t17,t13)),t4),((t19,t12),t8)),(t7,t2)),(((t9,(t14,(t9,t9))),(t3,t3)),(t11,(t18,t10)))),(t20,t20));"
H,L,20,4,"((((t11,((#D,t2))#A),((t19,t3),(((t9,t8),(((t12,t16),((t7)#D,t10)),(#C,(t5,t18)))),(t1,t17)))),(#B,(t20,(t15,(#A,t4))))),((t14,(t13)#B),(t6)#C))","((((((t7,t10),(t12,(t16,t16))),(t17,t17)),(t2,(t11,t11))),(t20,t20)),(t14,t13));"
H,L,20,4,"(t3,((((((t13,(t2)#B),((t9,(t19)#C),(t8,t6))),(t4,(t16)#A)),(#A,((t17,(#C,t10)),(t18,t5)))),(t20,((t15,t12))#D)),((((t14,t11),t7),(#B,t1)),#D)))","(((t15,t12),((((t14,t11),t7),t1),(t20,t10))),t3);"
H,L,20,4,"(((((t13,(t12)#A),t20),(#B,((((#D,(t3,t4)),((t19,(#C,t14)))#B),t10),(#A,t18)))),(t15,t5)),((t2,((t9,t16),t7)),(t1,((t11,(t17)#D),(t6,(t8)#C)))))","(((t17,t11),(t1,(t8,t6))),((t7,(t16,t9)),t2));"
H,L,20,4,"(((((t13,(t12)#A),t20),(#B,((((#D,(t3,t4)),((t19,(#C,t14)))#B),t10),(#A,t18)))),(t15,t5)),((t2,((t9,t16),t7)),(t1,((t11,(t17)#D),(t6,(t8)#C)))))","(((t18,(t14,t19)),((t3,t4),t10)),((t13,t12),t20));"
H,L,20,4,"(((t12,((t18,t11),((t4,(t5)#C),#C))),t7),((((t17,(t6,t13)),(t2)#B),t9),(#B,(((t16,t14),(t1,t15)),(#A,((((((t8,t20),t19))#D,t10),(t3)#A),#D))))))","((((t15,t1),t16),(((t8,t19),t20),(t10,t3))),t7);"
H,L,20,4,"((((((t2,t12),((t6,t10),((t17,t16),#D))),t8),(t20,(t19)#D)),(t4,(t7)#B)),((t11,(#B,(t1,t5))),(t14,(#A,(#C,(t3,(((t15,t9),((t18,t13))#A))#C))))))","((((((((t16,t16),t16),t17),t10),t12),(((t4,t7),(t4,t7)),(t4,t7))),(t20,t19)),(t14,((t18,t13),((t15,t9),t3))));"
H,L,20,4,"(((t1,(t13,t6)),((t19,((t2,t3),(t14,(t16)#A))),(#C,(#D,(#B,(t20,((#A,t11))#D)))))),((t4,(t8,(t10,(t9)#C))),(t18,(t15,((t5,t7),(t12,(t17)#B))))))","((((t16,t14),(t3,t2)),t19),(t11,t20));"
H,L,20,4,"(((((((t6,(t20)#D),t19),t11),t1),(((t5,t16),t2),(t12)#C)),(t17,(t8,t13))),((t7,(t9)#A),((((t14,#B),(t15)#B),(#A,((t3,(#D,t4)),(#C,t18)))),t10)))","((t12,(t2,(t5,t16))),(t19,(t6,t20)));"
H,L,20,4,"((((t13,t4),(t1,(t15,(#A,t3)))),(t9,t2)),(((t14,((t7,(t8)#A))#D),(#C,t12)),(((#B,((t10,(t18,t19)),t16)),((t6,t20))#B),((t17,(t5)#C),(#D,t11)))))","(((((t3,t8),t15),t1),(t4,t13)),t9);"
H,L,20,4,"(((t12,((t18,t11),((t4,(t5)#C),#C))),t7),((((t17,(t6,t13)),(t2)#B),t9),(#B,(((t16,t14),(t1,t15)),(#A,((((((t8,t20),t19))#D,t10),(t3)#A),#D))))))","(((t5,t4),(t18,t11)),((t13,t6),t17));"
H,L,20,4,"(t20,((((((t5,t16),t17),((t2,(t18)#C))#A),((t19,t1),(#A,((#C,(t15,(t7,(t14)#B))),(#B,(t3,#D)))))),(((t10,t13),((t6,t9),(t12)#D)),(t4,t11))),t8))","(((t4,(t2,((t16,t5),t17))),t8),t20);"
H,L,20,4,"((((((t20,((t18,((t11,t19),t4)))#D),((t5,t15),t13)),(#C,(#B,((t17,t10),t1)))),((t8,(t3)#B),t16)),(#D,((t14,(t2,t12)),(t9)#A))),(#A,(t6,(t7)#C)))","((((t17,(t16,t8)),(t7,(((t4,t18),(t11,t19)),t20))),t1),((t2,t12),t14));"
H,L,20,4,"(((t12,t19),(#D,(#A,((t10)#D,(#B,((t7,((t18,t4),(t16)#C)),t6)))))),(#C,((((t14,((t8,t17),t2)),((t5,t20))#B),(t1,(t13,((t9,t11))#A))),(t3,t15))))","(((((t7,(t20,t5)),t6),((t18,t4),(t11,t9))),t19),(((t8,t17),t14),t2));"
H,L,20,4,"(t4,(((t13,((t3,(t14)#B))#D),((t17,(#D,(t1,t5))),(t2)#C)),(((#A,(((t20,t10),(#B,t7)),t8)),((((t19,t16),(t9,t18)),(#C,t12)))#A),(t15,(t11,t6)))))","((((t12,((t9,(t19,t16)),t18)),(((t10,t20),t14),t7)),t8),(t6,(t11,t15)));"
H,L,20,4,"((t1,(#D,(t18,t16))),(((t5,(t20)#B),(t9,(t6)#D)),(((t14,(t8,(((t13,(t19,t4)))#C,(#A,t17)))),((t10,t11),(t2,t15))),((#B,(t7,(#C,t3))),(t12)#A))))","(((((t3,t19),t13),t7),t12),(t9,((t6,(t16,t18)),t1)));"
H,L,20,4,"(((t13,t20),(#A,((((t14,((t9,(#D,((t4,t11),t16))),(t8)#A)),((t15,((t1,t6),t17)))#C),t5),(((t18,(t19)#B),(#B,(t10,(t7)#D))),(t2,t12))))),(#C,t3))","(((t14,t15),(((t19,(t7,t10)),t18),(t12,t2))),(t13,t13));"
H,L,20,4,"(((t4,t6),((t12,(t15)#D),t7)),(((t3,(#A,((t13,(t10)#C),t5))),((t17,t8),t2)),(#B,(((t1,(t11,t16)),((((#C,t9),(t18)#A),t20),t14)),((#D,t19))#B))))","(((((t16,t11),t1),t19),t14),(t2,(t17,t8)));"
H,L,20,4,"(((((t10,t8),(#C,t18)),(#A,t7)),t5),(((t3,((t12,t15),t14)),(t20,((#B,t17),(t19)#B))),((((t2,t1),(t11,(t9)#A)),(t16)#C),(((#D,t13),(t4)#D),t6))))","((((t20,(t17,t19)),((t13,t4),((t2,t1),t9))),(t14,(t12,t15))),((((t8,t10),t16),t7),(t5,t5)));"
H,L,20,4,"(t4,(((t13,((t3,(t14)#B))#D),((t17,(#D,(t1,t5))),(t2)#C)),(((#A,(((t20,t10),(#B,t7)),t8)),((((t19,t16),(t9,t18)),(#C,t12)))#A),(t15,(t11,t6)))))","(((((((t18,t9),(t16,t19)),(t2,t12)),(t10,t20)),t8),((t15,t6),t11)),(t4,t4));"
H,L,20,4,"((((t13,t4),(t1,(t15,(#A,t3)))),(t9,t2)),(((t14,((t7,(t8)#A))#D),(#C,t12)),(((#B,((t10,(t18,t19)),t16)),((t6,t20))#B),((t17,(t5)#C),(#D,t11)))))","(((((t18,t19),t10),t16),(t6,t20)),((((t5,t5),t17),t11),((t12,t7),t14)));"
H,L,20,4,"(t3,((((((t13,(t2)#B),((t9,(t19)#C),(t8,t6))),(t4,(t16)#A)),(#A,((t17,(#C,t10)),(t18,t5)))),(t20,((t15,t12))#D)),((((t14,t11),t7),(#B,t1)),#D)))","(t20,(((t14,t11),t7),(t12,t15)));"
H,L,20,4,"(((((t11,#C),t13),t10),(t16,(t5,t15))),(((t12,t9),((t19,(#A,(((t1,t3),((t7,t6))#C),((((t18,t2),(t14,(t4)#A)),(t17)#D),#D)))),(t20,(t8)#B))),#B))","(((t12,t9),t20),(t16,(t5,t15)));"
H,L,20,4,"(((t12,(t13,(#A,((t17,t7),t11)))),(t15,(t20)#C)),(((t3,((t4,((#C,t19),(t16)#A)),#D)),((t8,((t2,t10))#B),(t9,(((t14,(t6)#D),t5),(#B,t1))))),t18))","(((((t7,t17),t11),t13),t12),t15);"
H,L,20,4,"((t5,(((t9,((t14,(t16)#C),((t1,t13),((t3,(t4)#D))#A))),(t12,t20)),t8)),(((t10,(t15,t19)),(#D,t7)),((t6,t17),(#B,(#A,(t18,((#C,(t2,t11)))#B))))))","(((t10,(t15,t19)),(t7,t4)),t8);"
H,L,20,4,"(((((t13,(t12)#A),t20),(#B,((((#D,(t3,t4)),((t19,(#C,t14)))#B),t10),(#A,t18)))),(t15,t5)),((t2,((t9,t16),t7)),(t1,((t11,(t17)#D),(t6,(t8)#C)))))","((t18,((t13,t12),t20)),(t15,t5));"
H,L,20,4,"(((#C,t13),(((t2,t15),(t18,(t17)#D)),#B)),(#A,((t1,(t6,t16)),(#D,((t3,(t8,((t7,(t19)#A),((t4,(t5)#B))#C))),((t9,t10),((t12,t11),(t14,t20))))))))","(((t20,t14),(t11,t12)),(t9,t10));"
H,L,20,4,"((((t11,((#D,t2))#A),((t19,t3),(((t9,t8),(((t12,t16),((t7)#D,t10)),(#C,(t5,t18)))),(t1,t17)))),(#B,(t20,(t15,(#A,t4))))),((t14,(t13)#B),(t6)#C))","((t13,(t4,t15)),(t11,(t7,t2)));"
H,L,20,4,"(((#B,(t15,(t1,t8))),(((t11,t7),((t5,(t9,(#A,(t20,t2)))),((t19,t6))#D)))#B),(#D,((t17,t18),(#C,((t16,(t12)#A),(t13,(((t3,t14),(t4)#C),t10)))))))","(((t1,t8),t15),(t10,(t19,t6)));"
H,L,20,4,"(t9,((((((t1)#D,(t7,(t5)#A)),(t14,(#C,(#D,(t4,(((t3,(t8)#B),t16))#C))))),(t6,(#A,t18))),((t2,t15),(t20,t12))),((t19,(#B,(t13,t11))),(t17,t10))))","((((t16,(((t3,t3),t4),t14)),(t7,(((t18,t18),t5),t6))),((t2,t15),t12)),((t10,t17),(((t8,t19),t11),t13)));"
H,L,20,4,"((((t6,((t11,t15),((t10,(t17)#B))#C)),(#B,t3)),(#D,t19)),((((#C,(t2,(t20)#D)),(#A,t5)),(t16,((t7,t4),t14))),(((t13,t9),(t1,t18)),(t8,(t12)#A))))","((((t10,t17),(t2,t20)),(t14,t7)),(((t11,t15),(t6,t6)),t19));"
H,L,20,4,"((((t5,(t19)#A),t15),(#C,(t3,(t9,t18)))),(#B,(((t8,(#D,t2)),t14),((t20,t7),((t16,((t12,(t1)#D),((((t11,t6),(t13,((#A,t4))#B)),t10))#C)),t17)))))","(((((t11,t6),(t13,((t4,t19),t10))),t16),t12),(t14,((t8,t1),t2)));"
H,L,20,4,"((t16,t15),(#A,(((((t9,(t18,t6)),t14),(#D,(((t2,t5),(t3,t19)),t10))),((t17,(t11)#B))#C),((((t8,t4),((#B,(t20,t13)))#D),(t7)#A),(t12,(#C,t1))))))","(((((((t20,t13),(t4,t8)),(t18,t6)),(t15,t16)),t14),t12),(t5,t2));"
H,L,20,4,"(((((((#C,t3),t7),t8),(#B,(t6,t18))),(#A,t11)),((t1,(#D,t2)),((t5,t10),t20))),(t12,(((t13,t19),((t16,(t4)#D),t17)),((t15,((t9,(t14)#A))#B))#C)))","((((((t8,(t15,(t9,(t9,t9)))),(t6,t18)),t3),(t11,t14)),((t20,t10),((t5,t10),t20))),(((t16,t17),((t19,t19),t13)),t12));"
H,L,20,4,"(((t12,(t13,(#A,((t17,t7),t11)))),(t15,(t20)#C)),(((t3,((t4,((#C,t19),(t16)#A)),#D)),((t8,((t2,t10))#B),(t9,(((t14,(t6)#D),t5),(#B,t1))))),t18))","(((((t11,(t7,t17)),t16),t13),(t12,t12)),t15);"
H,L,20,4,"((((t6,((t11,t15),((t10,(t17)#B))#C)),(#B,t3)),(#D,t19)),((((#C,(t2,(t20)#D)),(#A,t5)),(t16,((t7,t4),t14))),(((t13,t9),(t1,t18)),(t8,(t12)#A))))","(((((t12,t5),(t17,t10)),t2),(((t14,(t7,t7)),(t4,t4)),t16)),(((t6,(t11,t15)),t3),t20));"
H,L,20,4,"((((t5,(t19)#A),t15),(#C,(t3,(t9,t18)))),(#B,(((t8,(#D,t2)),t14),((t20,t7),((t16,((t12,(t1)#D),((((t11,t6),(t13,((#A,t4))#B)),t10))#C)),t17)))))","(((((t10,((t11,t6),t13)),t15),t9),t3),(t7,t20));"
H,L,20,4,"(((t13,(#A,t18)),(((t8,((t12,t17))#B),(t15,(t16,t11))),t2)),((((t7,(t10)#D),(t5)#A),(t9,(t20,(#C,t14)))),(#B,((t1,(t3,(t4)#C)),(t6,(#D,t19))))))","((((t20,t14),(t9,t9)),(t10,t7)),((t19,t6),(((t16,t11),t15),((t8,(t17,t12)),t2))));"
H,L,20,4,"(((t1,(t13,t6)),((t19,((t2,t3),(t14,(t16)#A))),(#C,(#D,(#B,(t20,((#A,t11))#D)))))),((t4,(t8,(t10,(t9)#C))),(t18,(t15,((t5,t7),(t12,(t17)#B))))))","((((t20,(t9,(t16,t11))),(t19,((t2,t3),t14))),((t20,(t16,t11)),t9)),((t10,t8),(t18,(t15,((t5,t7),(t17,t12))))));"
H,L,20,4,"(((t18,(t3)#C),(((((t13,((t9,((t7,t12),(t6,t14))))#A))#D,(#A,(t1,(t4,(t16)#B)))),t2),(t19,((t20,t11),(t5,t10))))),(((#C,(#D,(t17,t15))),t8),#B))","(((t3,(t15,t17)),t16),((t19,(t5,t10)),(t18,t18)));"
H,L,20,4,"(((((#D,t17),(t12)#C),(#C,(t5,(t8)#D))),(t4,(t18,t1))),(#A,((t15,(((t19,t2),(((t14,t3),t6))#A),t11)),(#B,((t9,(t13,((t16,(t10)#B),t7))),t20)))))","(((((((t14,t3),t6),(t2,t19)),t11),t15),((t20,(t20,t20)),(t9,(((t10,t10),t16),t13)))),((t12,(t8,t5)),(t4,(t18,t1))));"
H,L,20,4,"((((((t5,(t12,t17)),(t10,t14)),(t13,((t16,(t2)#A),t19))),(((t9,(t7)#C),#C),(t6,t11))),(#D,t20)),(#A,((t18,(t4)#B),((t1,(t8)#D),((#B,t15),t3)))))","(((((t19,t16),t13),((t10,t14),((t17,t12),(t12,t12)))),(t11,(t7,t7))),(t20,t8));"
H,L,20,4,"((((t10,((t12,(((#C,t3),t6))#A),(#A,t18))),((((t1)#D,(#B,t14)),(((t2,(t15,(t7)#B)),t20),t17)),(#D,t9))),((((t16,(t8)#C),t13),(t4,t19)),t5)),t11)","((((t5,((t16,t13),(t4,t19))),t5),(((t12,((t8,t3),t6)),t18),t14)),((t11,t11),t11));"
H,L,20,4,"(((((t18,t5),t14),(#D,(t8,((t2,t7))#A))),(#B,(((t19,(t3,(t16)#D)),(#A,t17)),#C))),((((t4,(t6,(t15,t10))),(t12,((t11,t1))#C)),t20),((t13,t9))#B))","(((((((t6,t6),t15),t10),t4),(t12,(t11,t1))),t20),((t19,t3),((t7,t2),(((t17,t17),t17),t17))));"
H,L,20,4,"(((((#D,t17),(t12)#C),(#C,(t5,(t8)#D))),(t4,(t18,t1))),(#A,((t15,(((t19,t2),(((t14,t3),t6))#A),t11)),(#B,((t9,(t13,((t16,(t10)#B),t7))),t20)))))","(((((t9,t9),(t13,((t7,t7),(t10,t16)))),((t20,t20),t20)),t15),((t8,t17),(t12,t5)));"
H,L,20,4,"((((((t19,(t8)#A),(#B,((t11,t15),((t4,((#A,t6))#C),(t17,t2))))),(#C,(((t18,t9),t10),(((t13,t5),(t20)#B))#D))),(#D,(t12,t16))),t3),((t1,t14),t7))","(((((((t13,t5),t20),((t12,t12),(t16,t16))),((((t6,t4),(t11,t15)),t19),t8)),(t10,(t18,t9))),t3),(t14,t1));"
H,L,20,4,"(((#D,(#C,((t20,t5),t11))),(#A,((t10,(t4,((t1,(t16)#B),(t7)#D))),t2))),((t18,((t6,t14),((((t8,t3),(t19)#C),t13),t15))),(t12,(#B,(t9,(t17)#A)))))","((((((t19,(t8,t3)),t13),t15),(t14,t6)),(t18,t18)),(t16,((t17,t9),t12)));"
H,L,20,4,"(((t16,(t17,((t10,t14))#C)),(t2,(t8,t6))),(((((t5,(t15)#B),t11),(t19,((#A,(((t18,t20),t4),t7)))#D)),(t12,((((#C,t1),((#B,t9))#A),t13),#D))),t3))","((((t14,t10),t17),(t2,(t6,t8))),t16);"
H,L,20,4,"((t2,t3),(((((t13,((t5,t16),(#C,t8))),(t6)#D),t1),((t9,(t7)#C),((((t19,((t12,(t11,t14)))#A),(#A,(t20,(#B,(t15,t17))))),((t4,t18))#B),t10))),#D))","((((((t20,(t17,t15)),((t19,t19),(t12,(t14,t11)))),(t18,t4)),t10),((((t16,t5),t13),t8),t1)),t6);"
H,L,20,4,"(((t18,(t19)#B),(#B,(t15,((t12,t8),((t2,t13))#D)))),(t11,(((t7,((t10,t20),t4)),(#C,t1)),((t3)#C,(#D,(t17,((t16,(t9)#A),(#A,((t6,t14),t5)))))))))","(((((t2,(t13,t13)),(t8,t12)),t15),(t19,t18)),(t4,t10));"
H,L,20,4,"((t16,(#C,((t6,t1),(t9,(t20,t2))))),(#D,(((t13,(((t7,((t14,t4))#B),((#B,(((t19,(t8)#A),t10),((t3,t12))#C)))#D),t5)),t17),(t15,(#A,(t11,t18))))))","(t16,(((((t18,t18),t11),t8),t15),((t17,(t5,t7)),t13)));"
H,L,20,4,"(((((t9,(t1,(t7)#C)),(t15)#D),((#C,t19),((((t12,t3),(t14,t10)),t17),t16))),(#B,((((t2,t4),t11),t8),(t6,#D)))),(#A,((t5,((t20,(t13)#B))#A),t18)))","(((((((t10,t14),((t3,t12),t3)),(t16,t17)),(t19,t19)),((t9,(t1,t7)),t15)),(t11,t6)),(((t20,t13),t5),t18));"
H,L,20,4,"(t17,(((((((t7,t2),((t14,t8))#C),(#C,(t15,t4))),(t18)#A),t20),(t10,t1)),(#A,(((t13,(#B,t3)),((t11,t12),((t9,(t16)#D),#D))),((t6,(t19)#B),t5)))))","((((((t3,t13),(t9,t16)),(t20,(((t15,(t15,t15)),((t7,t2),(t14,t8))),(t18,t18)))),t17),(t17,(t17,t17))),(t17,t17));"
H,L,20,4,"(((((t1)#C,(#C,t16)),(#D,(#A,(t6,(((t9,t15),t4),t5))))),(t8,((t2,t18))#A)),((t12,(((t10,((t13,(t20)#D))#B),(t14,t17)),(t7,t11))),(#B,(t19,t3))))","(((((((t5,(t5,t5)),(t15,t4)),t6),(t2,t18)),(t1,t16)),t8),((t3,(t19,(t19,t19))),((t12,t12),(((t10,(t20,t13)),(t17,t14)),(t7,t11)))));"
H,L,20,4,"(t3,((((((t13,(t2)#B),((t9,(t19)#C),(t8,t6))),(t4,(t16)#A)),(#A,((t17,(#C,t10)),(t18,t5)))),(t20,((t15,t12))#D)),((((t14,t11),t7),(#B,t1)),#D)))","(((((t13,t2),(t9,(t6,t8))),(((t18,(t5,t5)),(t19,t10)),t16)),((t15,t12),t20)),((t14,t11),((t1,t1),t1)));"
H,L,20,4,"(((((t8,(#B,t17)),((((t20,(t11)#C),(#C,t2)),t5),(#A,(#D,(((t18,t10),((t7,t4))#D),t6))))),(t16)#B),((t3,t9))#A),((t15,(t13,t19)),(t1,(t12,t14))))","((((t16,t17),t8),(t5,(t11,t20))),((((t15,t15),(t13,t19)),(t15,(t19,t13))),(t12,t12)));"
H,L,20,4,"((((((t2,(t14,(t4)#B)),(#A,t9)),(#B,(t10,t11))),(t18)#D),((((t16,(((t13,(t8,t3)),t7))#A),(#C,((t6,t19),t17))),t15),#D)),(t5,(t1,((t12)#C,t20))))","(((t18,(t19,t12)),(t15,t15)),((t14,(t2,((t7,t8),t13))),(t4,(t4,(t10,t11)))));"
H,L,20,4,"(((t18,((t3,(t8)#A),t14)),((((t6,(t7)#C),t10),(#A,(t20,(t16)#D))),((((t1,(t4)#B),t19),t5),(#B,(t11,(#C,t13)))))),(#D,(((t17,t2),t15),(t9,t12))))","((((((t1,(t19,(t19,t19))),t5),((t10,(t6,t7)),(t8,t20))),((t11,(t11,t13)),t4)),((t14,t3),t18)),(((t16,t16),t16),((t9,t12),((t15,t15),(t17,t2)))));"
H,L,20,4,"((((t5,(t19)#A),t15),(#C,(t3,(t9,t18)))),(#B,(((t8,(#D,t2)),t14),((t20,t7),((t16,((t12,(t1)#D),((((t11,t6),(t13,((#A,t4))#B)),t10))#C)),t17)))))","(((t8,t2),t14),(t20,t7));"
H,L,20,4,"(((((t10,t8),(#C,t18)),(#A,t7)),t5),(((t3,((t12,t15),t14)),(t20,((#B,t17),(t19)#B))),((((t2,t1),(t11,(t9)#A)),(t16)#C),(((#D,t13),(t4)#D),t6))))","(t5,(t7,(t18,(t10,t8))));"
H,L,20,4,"((((t13,(t6)#C),t11),((t4,(t8,t16)),(#D,t20))),(((t12,(((t15,t9),((t10,(#C,t2)))#B),(t18,t19))),(#B,(t5,((t17,(t1)#A),(t14)#D)))),(t3,(#A,t7))))","((t20,((t8,t16),t4)),t5);"
H,L,20,4,"((((((t2,t12),((t6,t10),((t17,t16),#D))),t8),(t20,(t19)#D)),(t4,(t7)#B)),((t11,(#B,(t1,t5))),(t14,(#A,(#C,(t3,(((t15,t9),((t18,t13))#A))#C))))))","(((t13,t18),t14),(t5,t1));"
H,L,20,4,"(((t12,(t13,(#A,((t17,t7),t11)))),(t15,(t20)#C)),(((t3,((t4,((#C,t19),(t16)#A)),#D)),((t8,((t2,t10))#B),(t9,(((t14,(t6)#D),t5),(#B,t1))))),t18))","((((t16,t19),t4),t3),t18);"
H,L,20,4,"(((t4,t6),((t12,(t15)#D),t7)),(((t3,(#A,((t13,(t10)#C),t5))),((t17,t8),t2)),(#B,(((t1,(t11,t16)),((((#C,t9),(t18)#A),t20),t14)),((#D,t19))#B))))","((((t10,t13),t5),t18),t3);"
H,L,20,4,"(((t18,(t19)#B),(#B,(t15,((t12,t8),((t2,t13))#D)))),(t11,(((t7,((t10,t20),t4)),(#C,t1)),((t3)#C,(#D,(t17,((t16,(t9)#A),(#A,((t6,t14),t5)))))))))","((t1,((t13,t2),t3)),t11);"
H,L,20,4,"((((t11,((#D,t2))#A),((t19,t3),(((t9,t8),(((t12,t16),((t7)#D,t10)),(#C,(t5,t18)))),(t1,t17)))),(#B,(t20,(t15,(#A,t4))))),((t14,(t13)#B),(t6)#C))","((((t4,t15),t20),t11),t14);"
H,L,20,4,"((((t11,((#D,t2))#A),((t19,t3),(((t9,t8),(((t12,t16),((t7)#D,t10)),(#C,(t5,t18)))),(t1,t17)))),(#B,(t20,(t15,(#A,t4))))),((t14,(t13)#B),(t6)#C))","(((((((((((t12,t16),(t12,t12)),(t12,t12)),(t7,t10)),(t6,((t18,t18),t5))),t8),t17),(t3,t19)),t11),((t13,t13),(t20,(t15,(t4,t2))))),(t14,t14));"
H,L,20,4,"(((t13,t20),(#A,((((t14,((t9,(#D,((t4,t11),t16))),(t8)#A)),((t15,((t1,t6),t17)))#C),t5),(((t18,(t19)#B),(#B,(t10,(t7)#D))),(t2,t12))))),(#C,t3))","((t15,((t1,t6),t17)),t3);"
H,L,20,4,"((t16,(#C,((t6,t1),(t9,(t20,t2))))),(#D,(((t13,(((t7,((t14,t4))#B),((#B,(((t19,(t8)#A),t10),((t3,t12))#C)))#D),t5)),t17),(t15,(#A,(t11,t18))))))","((t5,(t7,(t4,t14))),t17);"
H,L,20,4,"((t16,(#C,((t6,t1),(t9,(t20,t2))))),(#D,(((t13,(((t7,((t14,t4))#B),((#B,(((t19,(t8)#A),t10),((t3,t12))#C)))#D),t5)),t17),(t15,(#A,(t11,t18))))))","((t17,t13),(t15,(t11,t18)));"
H,L,20,4,"((((t10,t12),t2),((#A,t15))#C),(#B,(((t14,t6),(#D,(t9,((t13,t4))#D))),(#C,((((t17,t5),(t19,t20)),(t16,t1)),((t3,((t8,(t18)#B))#A),(t7,t11)))))))","((t8,t15),(t9,(t13,t4)));"
H,L,20,4,"((((((t19,(t8)#A),(#B,((t11,t15),((t4,((#A,t6))#C),(t17,t2))))),(#C,(((t18,t9),t10),(((t13,t5),(t20)#B))#D))),(#D,(t12,t16))),t3),((t1,t14),t7))","((((((t20,((t11,t15),(t4,(t17,t2)))),(((t13,t5),(t9,t18)),(t10,t10))),t19),(t16,(t12,t12))),t3),((t1,t14),t7));"
H,L,20,4,"((((((t20,((t18,((t11,t19),t4)))#D),((t5,t15),t13)),(#C,(#B,((t17,t10),t1)))),((t8,(t3)#B),t16)),(#D,((t14,(t2,t12)),(t9)#A))),(#A,(t6,(t7)#C)))","(((((t18,(t4,(t19,t11))),(t20,((t19,t11),(t18,t18)))),(t13,t15)),t1),(t14,(t12,t2)));"
H,L,20,4,"(t4,(((t13,((t3,(t14)#B))#D),((t17,(#D,(t1,t5))),(t2)#C)),(((#A,(((t20,t10),(#B,t7)),t8)),((((t19,t16),(t9,t18)),(#C,t12)))#A),(t15,(t11,t6)))))","(((((((((((t18,t18),(t16,t19)),t9),(t2,t12)),((t16,(t9,t18)),(t2,t12))),t8),(((t20,((t10,t10),t10)),t14),t7)),(t6,(t11,t15))),(((t8,((t10,t20),(t7,t14))),(((t9,t18),(t16,t19)),(t12,t2))),(t15,((t6,t6),(t11,t11))))),(t17,(t3,t13))),t4);"
H,L,20,4,"(((t10,t18),t13),(#C,(((t11,(((#B,((((t1,(#D,t6)),t2),((t20,(t14,(t15)#D)),(t9,(t12)#B))),(t5,(t3)#C))),(#A,(t19,t17))),t7)),((t16,t8))#A),t4)))","((((((((t20,t20),(t15,t14)),(t12,t9)),(t2,(t1,t6))),t7),(t19,t17)),(t13,t13)),(t3,t3));"
